[gd_scene load_steps=12 format=2]

[ext_resource path="res://scenes/main_char.tscn" type="PackedScene" id=1]
[ext_resource path="res://tilesets/snow.tres" type="TileSet" id=2]
[ext_resource path="res://assets/tileset/winter/BG/BG.png" type="Texture" id=3]
[ext_resource path="res://scenes/DieArea.tscn" type="PackedScene" id=4]
[ext_resource path="res://scenes/Life Counter.tscn" type="PackedScene" id=5]
[ext_resource path="res://scenes/zombie.tscn" type="PackedScene" id=6]
[ext_resource path="res://scenes/Friend2.tscn" type="PackedScene" id=7]
[ext_resource path="res://assets/elements/Default/castleSmall.png" type="Texture" id=8]
[ext_resource path="res://scripts/intro.gd" type="Script" id=9]
[ext_resource path="res://assets/fonts/Kecil.tres" type="DynamicFont" id=10]

[sub_resource type="RectangleShape2D" id=1]
extents = Vector2( 91.502, 104.278 )

[node name="level2" type="Control"]
__meta__ = {
"_edit_use_anchors_": false
}

[node name="TileMap" type="TileMap" parent="."]
position = Vector2( -8, 0 )
scale = Vector2( 0.5, 0.5 )
tile_set = ExtResource( 2 )
cell_size = Vector2( 128, 128 )
format = 1
tile_data = PoolIntArray( -1834843, 19, 0, -1769306, 18, 0, -1769295, 19, 0, -1703773, 18, 0, -1703771, 1, 0, -1703770, 1, 0, -1638235, 4, 0, -1638234, 4, 0, -1638233, 1, 0, -1638232, 1, 0, -1638230, 19, 0, -1638223, 1, 0, -1638222, 1, 0, -1638221, 1, 0, -1638220, 1, 0, -1638219, 1, 0, -1638218, 1, 0, -1638217, 1, 0, -1638216, 1, 0, -1638215, 1, 0, -1572703, 19, 0, -1572701, 0, 0, -1572700, 1, 0, -1572699, 4, 0, -1572698, 4, 0, -1572697, 4, 0, -1572696, 4, 0, -1572695, 1, 0, -1572687, 4, 0, -1572686, 4, 0, -1572685, 4, 0, -1572684, 4, 0, -1572683, 4, 0, -1572682, 4, 0, -1572681, 4, 0, -1572680, 4, 0, -1572679, 4, 0, -1507165, 7, 0, -1507164, 4, 0, -1507163, 4, 0, -1507162, 4, 0, -1507161, 4, 0, -1507160, 4, 0, -1507159, 4, 0, -1507158, 1, 0, -1507157, 1, 0, -1507151, 4, 0, -1507150, 4, 0, -1507149, 4, 0, -1507148, 4, 0, -1507147, 4, 0, -1507146, 4, 0, -1507145, 4, 0, -1507144, 4, 0, -1507143, 4, 0, -1441631, 0, 0, -1441630, 1, 0, -1441629, 4, 0, -1441628, 4, 0, -1441627, 4, 0, -1441626, 4, 0, -1441625, 4, 0, -1441624, 4, 0, -1441623, 4, 0, -1441622, 4, 0, -1441621, 4, 0, -1441620, 17, 0, -1441619, 17, 0, -1441618, 17, 0, -1441617, 17, 0, -1441616, 17, 0, -1441615, 4, 0, -1441614, 4, 0, -1441613, 4, 0, -1441612, 4, 0, -1441611, 4, 0, -1441610, 4, 0, -1441609, 4, 0, -1441608, 4, 0, -1441607, 4, 0, -1376097, 18, 0, -1376095, 7, 0, -1376094, 4, 0, -1376093, 4, 0, -1376092, 4, 0, -1376091, 4, 0, -1376090, 4, 0, -1376089, 4, 0, -1376088, 4, 0, -1376087, 4, 0, -1376086, 4, 0, -1376085, 4, 0, -1376084, 17, 0, -1376083, 17, 0, -1376082, 17, 0, -1376081, 17, 0, -1376080, 17, 0, -1376079, 4, 0, -1376078, 4, 0, -1376077, 4, 0, -1376076, 4, 0, -1376075, 4, 0, -1376074, 4, 0, -1376073, 4, 0, -1376072, 4, 0, -1376071, 4, 0, -1310559, 4, 0, -1310558, 4, 0, -1310557, 4, 0, -1310556, 4, 0, -1310555, 4, 0, -1310554, 4, 0, -1310553, 4, 0, -1310552, 4, 0, -1310551, 4, 0, -1310550, 4, 0, -1310549, 4, 0, -1310548, 4, 0, -1310547, 17, 0, -1310546, 17, 0, -1310545, 17, 0, -1310544, 4, 0, -1310543, 4, 0, -1310542, 4, 0, -1310541, 4, 0, -1310540, 4, 0, -1310539, 4, 0, -1310538, 4, 0, -1310537, 4, 0, -1310536, 4, 0, -1310535, 4, 0, -1245025, 0, 0, -1245024, 1, 0, -1245023, 4, 0, -1245022, 4, 0, -1245021, 4, 0, -1245020, 4, 0, -1245019, 4, 0, -1245018, 4, 0, -1245017, 4, 0, -1245016, 4, 0, -1245015, 4, 0, -1245014, 4, 0, -1245013, 4, 0, -1245012, 4, 0, -1245011, 4, 0, -1245010, 4, 0, -1245009, 4, 0, -1245008, 4, 0, -1245007, 4, 0, -1245006, 4, 0, -1245005, 4, 0, -1245004, 4, 0, -1245003, 4, 0, -1245002, 4, 0, -1245001, 4, 0, -1245000, 4, 0, -1244999, 4, 0, -1179492, 19, 0, -1179491, 19, 0, -1179489, 7, 0, -1179488, 4, 0, -1179487, 4, 0, -1179486, 4, 0, -1179485, 4, 0, -1179484, 4, 0, -1179483, 4, 0, -1179482, 4, 0, -1179481, 4, 0, -1179480, 4, 0, -1179479, 4, 0, -1179478, 4, 0, -1179477, 4, 0, -1179476, 4, 0, -1179475, 4, 0, -1179474, 4, 0, -1179473, 4, 0, -1179472, 4, 0, -1179471, 4, 0, -1179470, 4, 0, -1179469, 4, 0, -1179468, 4, 0, -1179467, 4, 0, -1179466, 4, 0, -1179465, 4, 0, -1179464, 4, 0, -1179463, 4, 0, -1113953, 4, 0, -1113952, 4, 0, -1113951, 4, 0, -1113950, 4, 0, -1113949, 4, 0, -1113948, 4, 0, -1113947, 4, 0, -1113946, 4, 0, -1113945, 4, 0, -1113944, 4, 0, -1113943, 4, 0, -1113942, 4, 0, -1113941, 4, 0, -1113940, 4, 0, -1113939, 4, 0, -1113938, 4, 0, -1113937, 4, 0, -1113936, 4, 0, -1113935, 4, 0, -1113934, 4, 0, -1113933, 4, 0, -1113932, 4, 0, -1113931, 4, 0, -1113930, 4, 0, -1113929, 4, 0, -1113928, 4, 0, -1113927, 4, 0, -1048420, 0, 0, -1048419, 1, 0, -1048418, 1, 0, -1048417, 4, 0, -1048416, 4, 0, -1048415, 4, 0, -1048414, 4, 0, -1048413, 4, 0, -1048412, 4, 0, -1048411, 4, 0, -1048410, 4, 0, -1048409, 4, 0, -1048408, 4, 0, -1048407, 4, 0, -1048406, 4, 0, -1048405, 4, 0, -1048404, 4, 0, -1048403, 4, 0, -1048402, 4, 0, -1048401, 4, 0, -1048400, 4, 0, -1048399, 4, 0, -1048398, 4, 0, -1048397, 4, 0, -1048396, 4, 0, -1048395, 4, 0, -1048394, 4, 0, -1048393, 4, 0, -1048392, 4, 0, -1048391, 4, 0, -982884, 3, 0, -982883, 4, 0, -982882, 4, 0, -982881, 4, 0, -982880, 4, 0, -982879, 4, 0, -982878, 4, 0, -982877, 4, 0, -982876, 4, 0, -982875, 4, 0, -982874, 4, 0, -982873, 4, 0, -982872, 4, 0, -982871, 4, 0, -982870, 4, 0, -982869, 4, 0, -982868, 4, 0, -982867, 4, 0, -982866, 4, 0, -982865, 4, 0, -982864, 4, 0, -982863, 4, 0, -982862, 4, 0, -982861, 4, 0, -982860, 4, 0, -982859, 4, 0, -982858, 4, 0, -982857, 4, 0, -982856, 4, 0, -982855, 4, 0, -917358, 13, 0, -917357, 14, 0, -917356, 14, 0, -917355, 14, 0, -917354, 15, 0, -917348, 3, 0, -917347, 4, 0, -917346, 4, 0, -917345, 4, 0, -917344, 4, 0, -917343, 4, 0, -917342, 4, 0, -917341, 4, 0, -917340, 4, 0, -917339, 4, 0, -917338, 4, 0, -917337, 8, 0, -917336, 8, 0, -917335, 8, 0, -917334, 4, 0, -917333, 4, 0, -917332, 4, 0, -917331, 4, 0, -917330, 4, 0, -917329, 4, 0, -917328, 4, 0, -917327, 4, 0, -917326, 4, 0, -917325, 4, 0, -917324, 4, 0, -917323, 4, 0, -917322, 4, 0, -917321, 4, 0, -917320, 4, 0, -917319, 4, 0, -851812, 3, 0, -851811, 4, 0, -851810, 4, 0, -851809, 4, 0, -851808, 4, 0, -851807, 4, 0, -851806, 4, 0, -851805, 4, 0, -851804, 8, 0, -851803, 8, 0, -851802, 8, 0, -851798, 4, 0, -851797, 4, 0, -851796, 4, 0, -851795, 4, 0, -851794, 4, 0, -851793, 4, 0, -851792, 4, 0, -851791, 4, 0, -851790, 4, 0, -851789, 4, 0, -851788, 4, 0, -851787, 4, 0, -851786, 4, 0, -851785, 4, 0, -851784, 4, 0, -851783, 4, 0, -786276, 11, 0, -786275, 8, 0, -786274, 8, 0, -786273, 8, 0, -786272, 8, 0, -786271, 8, 0, -786270, 8, 0, -786269, 8, 0, -786262, 4, 0, -786261, 4, 0, -786260, 4, 0, -786259, 4, 0, -786258, 4, 0, -786257, 4, 0, -786256, 4, 0, -786255, 4, 0, -786254, 4, 0, -786253, 4, 0, -786252, 4, 0, -786251, 4, 0, -786250, 4, 0, -786249, 4, 0, -786248, 4, 0, -786247, 4, 0, -720758, 13, 0, -720757, 14, 0, -720756, 14, 0, -720755, 14, 0, -720754, 15, 0, -720726, 4, 0, -720725, 4, 0, -720724, 4, 0, -720723, 4, 0, -720722, 4, 0, -720721, 4, 0, -720720, 4, 0, -720719, 4, 0, -720718, 4, 0, -720717, 4, 0, -720716, 4, 0, -720715, 4, 0, -720714, 4, 0, -720713, 4, 0, -720712, 4, 0, -720711, 4, 0, -655190, 4, 0, -655189, 4, 0, -655188, 4, 0, -655187, 4, 0, -655186, 4, 0, -655185, 4, 0, -655184, 4, 0, -655183, 4, 0, -655182, 4, 0, -655181, 4, 0, -655180, 4, 0, -655179, 4, 0, -655178, 4, 0, -655177, 4, 0, -655176, 4, 0, -655175, 4, 0, -589679, 13, 0, -589678, 14, 0, -589677, 15, 0, -589659, 1, 0, -589658, 1, 0, -589655, 13, 0, -589654, 4, 0, -589653, 4, 0, -589652, 4, 0, -589651, 4, 0, -589650, 4, 0, -589649, 4, 0, -589648, 4, 0, -589647, 4, 0, -589646, 4, 0, -589645, 4, 0, -589644, 4, 0, -589643, 4, 0, -589642, 4, 0, -589641, 4, 0, -589640, 4, 0, -589639, 4, 0, -524157, 18, 0, -524155, 0, 0, -524154, 1, 0, -524153, 2, 0, -524132, 0, 0, -524131, 1, 0, -524123, 4, 0, -524122, 4, 0, -524118, 4, 0, -524117, 4, 0, -524116, 4, 0, -524115, 4, 0, -524114, 4, 0, -524113, 4, 0, -524112, 4, 0, -524111, 4, 0, -524110, 4, 0, -524109, 4, 0, -524108, 4, 0, -524107, 4, 0, -524106, 4, 0, -524105, 4, 0, -524104, 4, 0, -524103, 4, 0, -458619, 7, 0, -458618, 4, 0, -458617, 5, 0, -458602, 13, 0, -458601, 14, 0, -458600, 15, 0, -458596, 3, 0, -458595, 4, 0, -458589, 1, 0, -458588, 1, 0, -458587, 4, 0, -458586, 4, 0, -458582, 4, 0, -458581, 4, 0, -458580, 4, 0, -458579, 4, 0, -458578, 4, 0, -458577, 4, 0, -458576, 4, 0, -458575, 4, 0, -458574, 4, 0, -458573, 4, 0, -458572, 4, 0, -458571, 4, 0, -458570, 4, 0, -458569, 4, 0, -458568, 4, 0, -458567, 4, 0, -393085, 0, 0, -393084, 1, 0, -393083, 4, 0, -393082, 4, 0, -393081, 5, 0, -393060, 3, 0, -393059, 4, 0, -393058, 1, 0, -393057, 1, 0, -393056, 1, 0, -393055, 1, 0, -393054, 1, 0, -393053, 4, 0, -393052, 4, 0, -393051, 4, 0, -393050, 4, 0, -393049, 15, 0, -393046, 4, 0, -393045, 4, 0, -393044, 4, 0, -393043, 4, 0, -393042, 4, 0, -393041, 4, 0, -393040, 4, 0, -393039, 4, 0, -393038, 4, 0, -393037, 4, 0, -393036, 4, 0, -393035, 4, 0, -393034, 4, 0, -393033, 4, 0, -393032, 4, 0, -393031, 4, 0, -327549, 7, 0, -327548, 4, 0, -327547, 4, 0, -327546, 4, 0, -327545, 5, 0, -327524, 3, 0, -327523, 4, 0, -327522, 4, 0, -327521, 4, 0, -327520, 4, 0, -327519, 4, 0, -327518, 4, 0, -327517, 4, 0, -327516, 4, 0, -327515, 4, 0, -327514, 4, 0, -327510, 4, 0, -327509, 4, 0, -327508, 4, 0, -327507, 4, 0, -327506, 4, 0, -327505, 4, 0, -327504, 4, 0, -327503, 4, 0, -327502, 4, 0, -327501, 4, 0, -262015, 0, 0, -262014, 1, 0, -262013, 4, 0, -262012, 4, 0, -262011, 4, 0, -262010, 4, 0, -262009, 5, 0, -261988, 3, 0, -261987, 4, 0, -261986, 4, 0, -261985, 4, 0, -261984, 4, 0, -261983, 4, 0, -261982, 4, 0, -261981, 4, 0, -261980, 4, 0, -261979, 4, 0, -261978, 4, 0, -261974, 4, 0, -261973, 4, 0, -261972, 4, 0, -261971, 4, 0, -261970, 4, 0, -261969, 4, 0, -261968, 4, 0, -261967, 4, 0, -261966, 4, 0, -261965, 4, 0, -196479, 7, 0, -196478, 4, 0, -196477, 4, 0, -196476, 4, 0, -196475, 4, 0, -196474, 4, 0, -196473, 5, 0, -196452, 3, 0, -196451, 4, 0, -196450, 4, 0, -196449, 4, 0, -196448, 4, 0, -196447, 4, 0, -196446, 4, 0, -196445, 4, 0, -196444, 4, 0, -196443, 4, 0, -196442, 4, 0, -196439, 13, 0, -196438, 4, 0, -196437, 4, 0, -196436, 4, 0, -196435, 4, 0, -196434, 4, 0, -196433, 4, 0, -196432, 4, 0, -196431, 4, 0, -196430, 4, 0, -196429, 4, 0, -130949, 0, 0, -130948, 1, 0, -130947, 1, 0, -130946, 1, 0, -130945, 1, 0, -130944, 1, 0, -130943, 4, 0, -130942, 4, 0, -130941, 4, 0, -130940, 4, 0, -130939, 4, 0, -130938, 4, 0, -130937, 5, 0, -130916, 3, 0, -130915, 4, 0, -130914, 4, 0, -130913, 4, 0, -130912, 4, 0, -130911, 4, 0, -130910, 4, 0, -130909, 4, 0, -130908, 4, 0, -130907, 4, 0, -130906, 4, 0, -130902, 4, 0, -130901, 4, 0, -130900, 4, 0, -130899, 4, 0, -130898, 4, 0, -130897, 4, 0, -130896, 4, 0, -130895, 4, 0, -130894, 4, 0, -130893, 4, 0, -65413, 3, 0, -65412, 4, 0, -65411, 4, 0, -65410, 4, 0, -65409, 4, 0, -65408, 4, 0, -65407, 4, 0, -65406, 4, 0, -65405, 4, 0, -65404, 4, 0, -65403, 4, 0, -65402, 4, 0, -65401, 5, 0, -65380, 3, 0, -65379, 4, 0, -65378, 4, 0, -65377, 4, 0, -65376, 4, 0, -65375, 4, 0, -65374, 4, 0, -65373, 4, 0, -65372, 4, 0, -65371, 4, 0, -65370, 4, 0, -65366, 4, 0, -65365, 4, 0, -65364, 4, 0, -65363, 4, 0, -65362, 4, 0, -65361, 4, 0, -65360, 4, 0, -65359, 4, 0, -65358, 4, 0, -65357, 4, 0, 117, 0, 0, 118, 1, 0, 119, 2, 0, 123, 3, 0, 124, 4, 0, 125, 4, 0, 126, 4, 0, 127, 4, 0, 128, 4, 0, 129, 4, 0, 130, 4, 0, 131, 4, 0, 132, 4, 0, 133, 4, 0, 134, 4, 0, 135, 5, 0, 156, 3, 0, 157, 4, 0, 158, 4, 0, 159, 4, 0, 160, 8, 0, 161, 8, 0, 162, 8, 0, 163, 8, 0, 164, 4, 0, 165, 4, 0, 166, 4, 0, 167, 15, 0, 170, 4, 0, 171, 4, 0, 172, 4, 0, 173, 4, 0, 174, 4, 0, 175, 4, 0, 176, 4, 0, 177, 4, 0, 178, 4, 0, 179, 4, 0, 131064, 1, 0, 131065, 1, 0, 131066, 1, 0, 131067, 18, 0, 65653, 7, 0, 65654, 4, 0, 65655, 5, 0, 65659, 3, 0, 65660, 4, 0, 65661, 4, 0, 65662, 4, 0, 65663, 4, 0, 65664, 4, 0, 65665, 4, 0, 65666, 4, 0, 65667, 4, 0, 65668, 4, 0, 65669, 4, 0, 65670, 4, 0, 65671, 5, 0, 65692, 3, 0, 65693, 4, 0, 65694, 8, 0, 65695, 8, 0, 65700, 8, 0, 65701, 8, 0, 65702, 8, 0, 65706, 4, 0, 65707, 4, 0, 65708, 4, 0, 65709, 4, 0, 65710, 4, 0, 65711, 4, 0, 65712, 4, 0, 65713, 4, 0, 65714, 4, 0, 65715, 4, 0, 196600, 4, 0, 196601, 4, 0, 196602, 4, 0, 131187, 0, 0, 131188, 1, 0, 131189, 4, 0, 131190, 4, 0, 131191, 5, 0, 131195, 3, 0, 131196, 4, 0, 131197, 4, 0, 131198, 4, 0, 131199, 4, 0, 131200, 4, 0, 131201, 4, 0, 131202, 4, 0, 131203, 4, 0, 131204, 4, 0, 131205, 4, 0, 131206, 4, 0, 131207, 5, 0, 131228, 11, 0, 131229, 8, 0, 131242, 4, 0, 131243, 4, 0, 131244, 4, 0, 131245, 4, 0, 131246, 4, 0, 131247, 4, 0, 131248, 4, 0, 131249, 4, 0, 131250, 4, 0, 131251, 4, 0, 262136, 4, 0, 262137, 4, 0, 262138, 4, 0, 262139, 1, 0, 262140, 1, 0, 262141, 6, 0, 196723, 7, 0, 196724, 4, 0, 196725, 4, 0, 196726, 4, 0, 196727, 5, 0, 196731, 3, 0, 196732, 4, 0, 196733, 4, 0, 196734, 4, 0, 196735, 4, 0, 196736, 4, 0, 196737, 4, 0, 196738, 4, 0, 196739, 4, 0, 196740, 4, 0, 196741, 4, 0, 196742, 4, 0, 196743, 5, 0, 196777, 0, 0, 196778, 4, 0, 196779, 4, 0, 196780, 4, 0, 196781, 4, 0, 196782, 4, 0, 196783, 4, 0, 196784, 4, 0, 196785, 4, 0, 196786, 4, 0, 196787, 4, 0, 327672, 4, 0, 327673, 4, 0, 327674, 4, 0, 327675, 4, 0, 327676, 4, 0, 327677, 4, 0, 262257, 0, 0, 262258, 1, 0, 262259, 4, 0, 262260, 4, 0, 262261, 4, 0, 262262, 4, 0, 262263, 5, 0, 262267, 3, 0, 262268, 4, 0, 262269, 4, 0, 262270, 4, 0, 262271, 4, 0, 262272, 4, 0, 262273, 4, 0, 262274, 4, 0, 262275, 4, 0, 262276, 4, 0, 262277, 4, 0, 262278, 4, 0, 262279, 5, 0, 262305, 1, 0, 262306, 1, 0, 262307, 1, 0, 262312, 0, 0, 262313, 4, 0, 262314, 4, 0, 262315, 4, 0, 262316, 4, 0, 262317, 4, 0, 262318, 4, 0, 262319, 4, 0, 262320, 4, 0, 262321, 4, 0, 262322, 4, 0, 262323, 4, 0, 393208, 4, 0, 393209, 4, 0, 393210, 4, 0, 393211, 4, 0, 393212, 4, 0, 393213, 4, 0, 393214, 1, 0, 393215, 2, 0, 327793, 7, 0, 327794, 4, 0, 327795, 4, 0, 327796, 4, 0, 327797, 4, 0, 327798, 4, 0, 327799, 5, 0, 327803, 3, 0, 327804, 4, 0, 327805, 4, 0, 327806, 4, 0, 327807, 4, 0, 327808, 4, 0, 327809, 4, 0, 327810, 4, 0, 327811, 4, 0, 327812, 4, 0, 327813, 4, 0, 327814, 4, 0, 327815, 5, 0, 327839, 1, 0, 327840, 1, 0, 327841, 4, 0, 327842, 4, 0, 327843, 4, 0, 327844, 1, 0, 327845, 1, 0, 327846, 1, 0, 327847, 1, 0, 327848, 4, 0, 327849, 4, 0, 327850, 4, 0, 327851, 4, 0, 327852, 4, 0, 327853, 4, 0, 327854, 4, 0, 327855, 4, 0, 327856, 4, 0, 327857, 4, 0, 327858, 4, 0, 327859, 4, 0, 458744, 4, 0, 458745, 4, 0, 458746, 4, 0, 458747, 4, 0, 458748, 4, 0, 458749, 4, 0, 458750, 4, 0, 458751, 5, 0, 393327, 0, 0, 393328, 1, 0, 393329, 4, 0, 393330, 4, 0, 393331, 4, 0, 393332, 4, 0, 393333, 4, 0, 393334, 4, 0, 393335, 5, 0, 393339, 3, 0, 393340, 4, 0, 393341, 4, 0, 393342, 4, 0, 393343, 4, 0, 393344, 4, 0, 393345, 4, 0, 393346, 4, 0, 393347, 4, 0, 393348, 4, 0, 393349, 4, 0, 393350, 4, 0, 393351, 5, 0, 393364, 13, 0, 393365, 14, 0, 393366, 15, 0, 393371, 0, 0, 393372, 1, 0, 393373, 1, 0, 393374, 1, 0, 393375, 4, 0, 393376, 4, 0, 393377, 4, 0, 393378, 4, 0, 393379, 4, 0, 393380, 4, 0, 393381, 4, 0, 393382, 4, 0, 393383, 4, 0, 393384, 4, 0, 393385, 4, 0, 393386, 4, 0, 393387, 4, 0, 393388, 4, 0, 393389, 4, 0, 393390, 4, 0, 393391, 4, 0, 393392, 4, 0, 393393, 4, 0, 393394, 4, 0, 393395, 4, 0, 524280, 4, 0, 524281, 4, 0, 524282, 4, 0, 524283, 4, 0, 524284, 4, 0, 524285, 4, 0, 524286, 4, 0, 524287, 5, 0, 458759, 18, 0, 458765, 19, 0, 458770, 0, 0, 458771, 2, 0, 458857, 13, 0, 458858, 14, 0, 458859, 15, 0, 458863, 3, 0, 458864, 4, 0, 458865, 4, 0, 458866, 4, 0, 458867, 4, 0, 458868, 4, 0, 458869, 4, 0, 458870, 4, 0, 458871, 5, 0, 458875, 3, 0, 458876, 4, 0, 458877, 4, 0, 458878, 4, 0, 458879, 4, 0, 458880, 4, 0, 458881, 4, 0, 458882, 4, 0, 458883, 4, 0, 458884, 4, 0, 458885, 4, 0, 458886, 4, 0, 458887, 5, 0, 458907, 3, 0, 458908, 4, 0, 458909, 4, 0, 458910, 4, 0, 458911, 4, 0, 458912, 4, 0, 458913, 4, 0, 458914, 4, 0, 458915, 4, 0, 458916, 4, 0, 458917, 4, 0, 458918, 4, 0, 458919, 4, 0, 458920, 4, 0, 458921, 4, 0, 458922, 4, 0, 458923, 4, 0, 458924, 4, 0, 458925, 4, 0, 458926, 4, 0, 458927, 4, 0, 458928, 4, 0, 458929, 4, 0, 458930, 4, 0, 458931, 4, 0, 589816, 4, 0, 589817, 4, 0, 589818, 4, 0, 589819, 4, 0, 589820, 4, 0, 589821, 4, 0, 589822, 4, 0, 589823, 9, 0, 524306, 3, 0, 524307, 5, 0, 524354, 19, 0, 524399, 3, 0, 524400, 4, 0, 524401, 4, 0, 524402, 4, 0, 524403, 4, 0, 524404, 4, 0, 524405, 4, 0, 524406, 4, 0, 524407, 5, 0, 524411, 3, 0, 524412, 4, 0, 524413, 4, 0, 524414, 4, 0, 524415, 4, 0, 524416, 4, 0, 524417, 4, 0, 524418, 4, 0, 524419, 4, 0, 524420, 4, 0, 524421, 4, 0, 524422, 4, 0, 524423, 5, 0, 524429, 13, 0, 524430, 14, 0, 524431, 15, 0, 524443, 3, 0, 524444, 4, 0, 524445, 4, 0, 524446, 4, 0, 524447, 4, 0, 524448, 4, 0, 524449, 4, 0, 524450, 4, 0, 524451, 4, 0, 524452, 4, 0, 524453, 4, 0, 524454, 4, 0, 524455, 4, 0, 524456, 4, 0, 524457, 4, 0, 524458, 4, 0, 524459, 4, 0, 524460, 4, 0, 524461, 4, 0, 524462, 4, 0, 524463, 4, 0, 524464, 4, 0, 524465, 4, 0, 524466, 4, 0, 524467, 4, 0, 655352, 4, 0, 655353, 4, 0, 655354, 4, 0, 655355, 4, 0, 655356, 4, 0, 655357, 4, 0, 655358, 4, 0, 655359, 4, 0, 589824, 1, 0, 589825, 1, 0, 589826, 1, 0, 589827, 2, 0, 589830, 0, 0, 589831, 1, 0, 589832, 1, 0, 589833, 1, 0, 589834, 2, 0, 589837, 0, 0, 589838, 2, 0, 589842, 3, 0, 589843, 5, 0, 589847, 0, 0, 589848, 2, 0, 589851, 0, 0, 589852, 2, 0, 589919, 18, 0, 589924, 13, 0, 589925, 14, 0, 589926, 15, 0, 589935, 3, 0, 589936, 4, 0, 589937, 4, 0, 589938, 4, 0, 589939, 4, 0, 589940, 4, 0, 589941, 4, 0, 589942, 4, 0, 589943, 5, 0, 589947, 3, 0, 589948, 4, 0, 589949, 4, 0, 589950, 4, 0, 589951, 4, 0, 589952, 4, 0, 589953, 4, 0, 589954, 4, 0, 589955, 4, 0, 589956, 4, 0, 589957, 4, 0, 589958, 4, 0, 589959, 5, 0, 589979, 3, 0, 589980, 4, 0, 589981, 4, 0, 589982, 4, 0, 589983, 4, 0, 589984, 4, 0, 589985, 4, 0, 589986, 4, 0, 589987, 4, 0, 589988, 4, 0, 589989, 4, 0, 589990, 4, 0, 589991, 4, 0, 589992, 4, 0, 589993, 4, 0, 589994, 4, 0, 589995, 4, 0, 589996, 4, 0, 589997, 4, 0, 589998, 4, 0, 589999, 4, 0, 590000, 4, 0, 590001, 4, 0, 590002, 4, 0, 590003, 4, 0, 720888, 4, 0, 720889, 4, 0, 720890, 4, 0, 720891, 4, 0, 720892, 4, 0, 720893, 4, 0, 720894, 4, 0, 720895, 4, 0, 655360, 4, 0, 655361, 4, 0, 655362, 4, 0, 655363, 5, 0, 655366, 3, 0, 655367, 4, 0, 655368, 4, 0, 655369, 4, 0, 655370, 5, 0, 655373, 3, 0, 655374, 5, 0, 655378, 3, 0, 655379, 5, 0, 655383, 3, 0, 655384, 5, 0, 655387, 3, 0, 655388, 9, 0, 655389, 6, 0, 655391, 19, 0, 655399, 18, 0, 655400, 19, 0, 655410, 13, 0, 655411, 14, 0, 655412, 15, 0, 655422, 19, 0, 655425, 10, 0, 655426, 1, 0, 655427, 6, 0, 655429, 18, 0, 655471, 3, 0, 655472, 4, 0, 655473, 4, 0, 655474, 4, 0, 655475, 4, 0, 655476, 4, 0, 655477, 4, 0, 655478, 4, 0, 655479, 5, 0, 655483, 3, 0, 655484, 4, 0, 655485, 4, 0, 655486, 4, 0, 655487, 4, 0, 655488, 4, 0, 655489, 4, 0, 655490, 4, 0, 655491, 4, 0, 655492, 4, 0, 655493, 8, 0, 655494, 8, 0, 655495, 12, 0, 655506, 13, 0, 655507, 14, 0, 655508, 15, 0, 655515, 3, 0, 655516, 4, 0, 655517, 4, 0, 655518, 4, 0, 655519, 4, 0, 655520, 4, 0, 655521, 4, 0, 655522, 4, 0, 655523, 4, 0, 655524, 4, 0, 655525, 4, 0, 655526, 4, 0, 655527, 4, 0, 655528, 4, 0, 655529, 4, 0, 655530, 4, 0, 655531, 4, 0, 655532, 4, 0, 655533, 4, 0, 655534, 4, 0, 655535, 4, 0, 655536, 4, 0, 655537, 4, 0, 655538, 4, 0, 655539, 4, 0, 786424, 4, 0, 786425, 4, 0, 786426, 4, 0, 786427, 4, 0, 786428, 4, 0, 786429, 4, 0, 786430, 4, 0, 786431, 4, 0, 720896, 4, 0, 720897, 4, 0, 720898, 4, 0, 720899, 5, 0, 720902, 3, 0, 720903, 4, 0, 720904, 4, 0, 720905, 4, 0, 720906, 5, 0, 720909, 3, 0, 720910, 5, 0, 720914, 3, 0, 720915, 5, 0, 720919, 3, 0, 720920, 5, 0, 720923, 3, 0, 720924, 4, 0, 720925, 4, 0, 720926, 6, 0, 720941, 13, 0, 720942, 14, 0, 720943, 15, 0, 720951, 13, 0, 720952, 14, 0, 720953, 15, 0, 720960, 10, 0, 720961, 4, 0, 720962, 4, 0, 720963, 4, 0, 720964, 6, 0, 720991, 10, 0, 720992, 1, 0, 720993, 6, 0, 721007, 3, 0, 721008, 4, 0, 721009, 4, 0, 721010, 4, 0, 721011, 4, 0, 721012, 4, 0, 721013, 4, 0, 721014, 4, 0, 721015, 5, 0, 721019, 3, 0, 721020, 4, 0, 721021, 4, 0, 721022, 4, 0, 721023, 4, 0, 721024, 4, 0, 721025, 8, 0, 721026, 8, 0, 721027, 8, 0, 721028, 8, 0, 721051, 3, 0, 721052, 4, 0, 721053, 4, 0, 721054, 4, 0, 721055, 4, 0, 721056, 4, 0, 721057, 4, 0, 721058, 4, 0, 721059, 4, 0, 721060, 4, 0, 721061, 4, 0, 721062, 4, 0, 721063, 4, 0, 721064, 4, 0, 721065, 4, 0, 721066, 4, 0, 721067, 4, 0, 721068, 4, 0, 721069, 4, 0, 721070, 4, 0, 721071, 4, 0, 721072, 4, 0, 721073, 4, 0, 721074, 4, 0, 721075, 4, 0, 851960, 4, 0, 851961, 4, 0, 851962, 4, 0, 851963, 4, 0, 851964, 4, 0, 851965, 4, 0, 851966, 4, 0, 851967, 4, 0, 786432, 4, 0, 786433, 4, 0, 786434, 4, 0, 786435, 5, 0, 786438, 3, 0, 786439, 4, 0, 786440, 4, 0, 786441, 4, 0, 786442, 5, 0, 786445, 3, 0, 786446, 5, 0, 786450, 3, 0, 786451, 5, 0, 786455, 3, 0, 786456, 5, 0, 786459, 3, 0, 786460, 4, 0, 786461, 4, 0, 786462, 4, 0, 786463, 1, 0, 786464, 6, 0, 786471, 10, 0, 786472, 1, 0, 786473, 1, 0, 786474, 2, 0, 786492, 0, 0, 786493, 1, 0, 786494, 1, 0, 786495, 1, 0, 786496, 4, 0, 786497, 4, 0, 786498, 4, 0, 786499, 4, 0, 786500, 4, 0, 786501, 1, 0, 786502, 1, 0, 786503, 6, 0, 786527, 4, 0, 786528, 4, 0, 786529, 4, 0, 786543, 3, 0, 786544, 4, 0, 786545, 4, 0, 786546, 4, 0, 786547, 4, 0, 786548, 4, 0, 786549, 4, 0, 786550, 4, 0, 786551, 5, 0, 786555, 3, 0, 786556, 4, 0, 786557, 4, 0, 786558, 4, 0, 786559, 4, 0, 786560, 4, 0, 786583, 13, 0, 786584, 14, 0, 786585, 15, 0, 786587, 3, 0, 786588, 4, 0, 786589, 4, 0, 786590, 4, 0, 786591, 4, 0, 786592, 4, 0, 786593, 4, 0, 786594, 4, 0, 786595, 4, 0, 786596, 4, 0, 786597, 4, 0, 786598, 4, 0, 786599, 4, 0, 786600, 4, 0, 786601, 4, 0, 786602, 4, 0, 786603, 4, 0, 786604, 4, 0, 786605, 4, 0, 786606, 4, 0, 786607, 4, 0, 786608, 4, 0, 786609, 4, 0, 786610, 4, 0, 786611, 4, 0, 917496, 4, 0, 917497, 4, 0, 917498, 4, 0, 917499, 4, 0, 917500, 4, 0, 917501, 4, 0, 917502, 4, 0, 917503, 4, 0, 851968, 4, 0, 851969, 4, 0, 851970, 4, 0, 851971, 5, 0, 851974, 3, 0, 851975, 4, 0, 851976, 4, 0, 851977, 4, 0, 851978, 5, 0, 851981, 3, 0, 851982, 5, 0, 851986, 3, 0, 851987, 5, 0, 851991, 3, 0, 851992, 5, 0, 851995, 3, 0, 851996, 4, 0, 851997, 4, 0, 851998, 4, 0, 851999, 4, 0, 852000, 4, 0, 852006, 10, 0, 852007, 4, 0, 852008, 4, 0, 852009, 4, 0, 852010, 5, 0, 852028, 3, 0, 852029, 4, 0, 852030, 4, 0, 852031, 4, 0, 852032, 4, 0, 852033, 4, 0, 852034, 4, 0, 852035, 4, 0, 852036, 4, 0, 852037, 4, 0, 852038, 4, 0, 852039, 4, 0, 852043, 19, 0, 852051, 1, 0, 852058, 18, 0, 852061, 10, 0, 852062, 1, 0, 852063, 4, 0, 852064, 4, 0, 852065, 4, 0, 852079, 3, 0, 852080, 4, 0, 852081, 4, 0, 852082, 4, 0, 852083, 4, 0, 852084, 4, 0, 852085, 4, 0, 852086, 4, 0, 852087, 5, 0, 852091, 3, 0, 852092, 4, 0, 852093, 4, 0, 852094, 4, 0, 852095, 8, 0, 852096, 8, 0, 852123, 3, 0, 852124, 4, 0, 852125, 4, 0, 852126, 4, 0, 852127, 4, 0, 852128, 4, 0, 852129, 4, 0, 852130, 4, 0, 852131, 4, 0, 852132, 4, 0, 852133, 4, 0, 852134, 4, 0, 852135, 4, 0, 852136, 4, 0, 852137, 4, 0, 852138, 4, 0, 852139, 4, 0, 852140, 4, 0, 852141, 4, 0, 852142, 4, 0, 852143, 4, 0, 852144, 4, 0, 852145, 4, 0, 852146, 4, 0, 852147, 4, 0, 983032, 4, 0, 983033, 4, 0, 983034, 4, 0, 983035, 4, 0, 983036, 4, 0, 983037, 4, 0, 983038, 4, 0, 983039, 4, 0, 917504, 4, 0, 917505, 4, 0, 917506, 4, 0, 917507, 5, 0, 917510, 3, 0, 917511, 4, 0, 917512, 4, 0, 917513, 4, 0, 917514, 5, 0, 917517, 3, 0, 917518, 5, 0, 917522, 3, 0, 917523, 5, 0, 917527, 3, 0, 917528, 5, 0, 917531, 3, 0, 917532, 4, 0, 917533, 4, 0, 917534, 4, 0, 917535, 4, 0, 917536, 4, 0, 917537, 1, 0, 917538, 1, 0, 917539, 1, 0, 917540, 1, 0, 917541, 1, 0, 917542, 4, 0, 917543, 4, 0, 917544, 4, 0, 917545, 4, 0, 917546, 5, 0, 917564, 3, 0, 917565, 4, 0, 917566, 4, 0, 917567, 4, 0, 917568, 4, 0, 917569, 4, 0, 917570, 4, 0, 917571, 4, 0, 917572, 4, 0, 917573, 4, 0, 917574, 4, 0, 917575, 4, 0, 917576, 1, 0, 917577, 1, 0, 917583, 1, 0, 917587, 4, 0, 917591, 1, 0, 917597, 4, 0, 917598, 4, 0, 917599, 4, 0, 917600, 4, 0, 917601, 4, 0, 917615, 3, 0, 917616, 4, 0, 917617, 4, 0, 917618, 4, 0, 917619, 4, 0, 917620, 4, 0, 917621, 4, 0, 917622, 4, 0, 917623, 5, 0, 917627, 3, 0, 917628, 4, 0, 917629, 4, 0, 917630, 4, 0, 917659, 3, 0, 917660, 4, 0, 917661, 4, 0, 917662, 4, 0, 917663, 4, 0, 917664, 4, 0, 917665, 4, 0, 917666, 4, 0, 917667, 4, 0, 917668, 4, 0, 917669, 4, 0, 917670, 4, 0, 917671, 4, 0, 917672, 4, 0, 917673, 4, 0, 917674, 4, 0, 917675, 4, 0, 917676, 4, 0, 917677, 4, 0, 917678, 4, 0, 917679, 4, 0, 917680, 4, 0, 917681, 4, 0, 917682, 4, 0, 917683, 4, 0, 1048568, 4, 0, 1048569, 4, 0, 1048570, 4, 0, 1048571, 4, 0, 1048572, 4, 0, 1048573, 4, 0, 1048574, 4, 0, 1048575, 4, 0, 983040, 4, 0, 983041, 4, 0, 983042, 4, 0, 983043, 5, 0, 983046, 3, 0, 983047, 4, 0, 983048, 4, 0, 983049, 4, 0, 983050, 5, 0, 983053, 3, 0, 983054, 5, 0, 983058, 3, 0, 983059, 5, 0, 983063, 3, 0, 983064, 5, 0, 983067, 3, 0, 983068, 4, 0, 983069, 4, 0, 983070, 4, 0, 983071, 4, 0, 983072, 4, 0, 983073, 4, 0, 983074, 4, 0, 983075, 4, 0, 983076, 4, 0, 983077, 4, 0, 983078, 4, 0, 983079, 4, 0, 983080, 4, 0, 983081, 4, 0, 983082, 5, 0, 983100, 3, 0, 983101, 4, 0, 983102, 4, 0, 983103, 4, 0, 983104, 4, 0, 983105, 4, 0, 983106, 4, 0, 983107, 4, 0, 983108, 4, 0, 983109, 4, 0, 983110, 4, 0, 983111, 4, 0, 983112, 4, 0, 983113, 4, 0, 983114, 1, 0, 983115, 1, 0, 983116, 6, 0, 983119, 4, 0, 983123, 4, 0, 983127, 4, 0, 983130, 10, 0, 983131, 1, 0, 983132, 1, 0, 983133, 4, 0, 983134, 4, 0, 983135, 4, 0, 983136, 4, 0, 983137, 4, 0, 983151, 3, 0, 983152, 4, 0, 983153, 4, 0, 983154, 4, 0, 983155, 4, 0, 983156, 4, 0, 983157, 4, 0, 983158, 4, 0, 983159, 5, 0, 983163, 3, 0, 983164, 4, 0, 983165, 4, 0, 983166, 4, 0, 983177, 1, 0, 983178, 1, 0, 983182, 13, 0, 983183, 14, 0, 983184, 15, 0, 983189, 13, 0, 983190, 14, 0, 983191, 15, 0, 983195, 3, 0, 983196, 4, 0, 983197, 4, 0, 983198, 4, 0, 983199, 4, 0, 983200, 4, 0, 983201, 4, 0, 983202, 4, 0, 983203, 4, 0, 983204, 4, 0, 983205, 4, 0, 983206, 4, 0, 983207, 4, 0, 983208, 4, 0, 983209, 4, 0, 983210, 4, 0, 983211, 4, 0, 983212, 4, 0, 983213, 4, 0, 983214, 4, 0, 983215, 4, 0, 983216, 4, 0, 983217, 4, 0, 983218, 4, 0, 983219, 4, 0, 1114104, 4, 0, 1114105, 4, 0, 1114106, 4, 0, 1114107, 4, 0, 1114108, 4, 0, 1114109, 4, 0, 1114110, 4, 0, 1114111, 4, 0, 1048576, 4, 0, 1048577, 4, 0, 1048578, 4, 0, 1048579, 5, 0, 1048582, 3, 0, 1048583, 4, 0, 1048584, 4, 0, 1048585, 4, 0, 1048586, 5, 0, 1048589, 3, 0, 1048590, 5, 0, 1048594, 3, 0, 1048595, 5, 0, 1048599, 3, 0, 1048600, 5, 0, 1048603, 3, 0, 1048604, 4, 0, 1048605, 4, 0, 1048606, 4, 0, 1048607, 4, 0, 1048608, 4, 0, 1048609, 4, 0, 1048610, 4, 0, 1048611, 4, 0, 1048612, 4, 0, 1048613, 4, 0, 1048614, 4, 0, 1048615, 4, 0, 1048616, 4, 0, 1048617, 4, 0, 1048618, 5, 0, 1048636, 3, 0, 1048637, 4, 0, 1048638, 4, 0, 1048639, 4, 0, 1048640, 4, 0, 1048641, 4, 0, 1048642, 4, 0, 1048643, 4, 0, 1048644, 4, 0, 1048645, 4, 0, 1048646, 4, 0, 1048647, 4, 0, 1048648, 4, 0, 1048649, 4, 0, 1048650, 4, 0, 1048651, 4, 0, 1048652, 4, 0, 1048655, 4, 0, 1048659, 4, 0, 1048663, 4, 0, 1048666, 4, 0, 1048667, 4, 0, 1048668, 4, 0, 1048669, 4, 0, 1048670, 4, 0, 1048671, 4, 0, 1048672, 4, 0, 1048673, 4, 0, 1048687, 3, 0, 1048688, 4, 0, 1048689, 4, 0, 1048690, 4, 0, 1048691, 4, 0, 1048692, 4, 0, 1048693, 4, 0, 1048694, 4, 0, 1048695, 5, 0, 1048699, 3, 0, 1048700, 4, 0, 1048701, 4, 0, 1048702, 4, 0, 1048709, 1, 0, 1048710, 1, 0, 1048711, 1, 0, 1048712, 1, 0, 1048713, 4, 0, 1048714, 4, 0, 1048731, 3, 0, 1048732, 4, 0, 1048733, 4, 0, 1048734, 4, 0, 1048735, 4, 0, 1048736, 4, 0, 1048737, 4, 0, 1048738, 4, 0, 1048739, 4, 0, 1048740, 4, 0, 1048741, 4, 0, 1048742, 4, 0, 1048743, 4, 0, 1048744, 4, 0, 1048745, 4, 0, 1048746, 4, 0, 1048747, 4, 0, 1048748, 4, 0, 1048749, 4, 0, 1048750, 4, 0, 1048751, 4, 0, 1048752, 4, 0, 1048753, 4, 0, 1048754, 4, 0, 1048755, 4, 0, 1179640, 4, 0, 1179641, 4, 0, 1179642, 4, 0, 1179643, 4, 0, 1179644, 4, 0, 1179645, 4, 0, 1179646, 4, 0, 1179647, 4, 0, 1114112, 4, 0, 1114113, 4, 0, 1114114, 4, 0, 1114115, 5, 0, 1114118, 3, 0, 1114119, 4, 0, 1114120, 4, 0, 1114121, 4, 0, 1114122, 5, 0, 1114125, 3, 0, 1114126, 5, 0, 1114130, 3, 0, 1114131, 5, 0, 1114135, 3, 0, 1114136, 5, 0, 1114139, 3, 0, 1114140, 4, 0, 1114141, 4, 0, 1114142, 4, 0, 1114143, 4, 0, 1114144, 4, 0, 1114145, 4, 0, 1114146, 4, 0, 1114147, 4, 0, 1114148, 4, 0, 1114149, 4, 0, 1114150, 4, 0, 1114151, 4, 0, 1114152, 4, 0, 1114153, 4, 0, 1114154, 5, 0, 1114172, 3, 0, 1114173, 4, 0, 1114174, 4, 0, 1114175, 4, 0, 1114176, 4, 0, 1114177, 4, 0, 1114178, 4, 0, 1114179, 4, 0, 1114180, 4, 0, 1114181, 4, 0, 1114182, 4, 0, 1114183, 4, 0, 1114184, 4, 0, 1114185, 4, 0, 1114186, 4, 0, 1114187, 4, 0, 1114188, 4, 0, 1114191, 4, 0, 1114195, 4, 0, 1114199, 4, 0, 1114202, 4, 0, 1114203, 4, 0, 1114204, 4, 0, 1114205, 4, 0, 1114206, 4, 0, 1114207, 4, 0, 1114208, 4, 0, 1114209, 4, 0, 1114223, 3, 0, 1114224, 4, 0, 1114225, 4, 0, 1114226, 4, 0, 1114227, 4, 0, 1114228, 4, 0, 1114229, 4, 0, 1114230, 4, 0, 1114231, 5, 0, 1114235, 3, 0, 1114236, 4, 0, 1114237, 4, 0, 1114238, 4, 0, 1114245, 4, 0, 1114246, 4, 0, 1114247, 4, 0, 1114248, 4, 0, 1114249, 4, 0, 1114250, 4, 0, 1114267, 3, 0, 1114268, 4, 0, 1114269, 4, 0, 1114270, 4, 0, 1114271, 4, 0, 1114272, 4, 0, 1114273, 4, 0, 1114274, 4, 0, 1114275, 4, 0, 1114276, 4, 0, 1114277, 4, 0, 1114278, 4, 0, 1114279, 4, 0, 1114280, 4, 0, 1114281, 4, 0, 1114282, 4, 0, 1114283, 4, 0, 1114284, 4, 0, 1114285, 4, 0, 1114286, 4, 0, 1114287, 4, 0, 1114288, 4, 0, 1114289, 4, 0, 1114290, 4, 0, 1114291, 4, 0, 1245176, 4, 0, 1245177, 4, 0, 1245178, 4, 0, 1245179, 4, 0, 1245180, 4, 0, 1245181, 4, 0, 1245182, 4, 0, 1245183, 4, 0, 1179648, 4, 0, 1179649, 4, 0, 1179650, 4, 0, 1179651, 5, 0, 1179654, 3, 0, 1179655, 4, 0, 1179656, 4, 0, 1179657, 4, 0, 1179658, 5, 0, 1179661, 3, 0, 1179662, 5, 0, 1179666, 3, 0, 1179667, 5, 0, 1179671, 3, 0, 1179672, 5, 0, 1179675, 3, 0, 1179676, 4, 0, 1179677, 4, 0, 1179678, 4, 0, 1179679, 4, 0, 1179680, 4, 0, 1179681, 4, 0, 1179682, 4, 0, 1179683, 4, 0, 1179684, 4, 0, 1179685, 4, 0, 1179686, 4, 0, 1179687, 4, 0, 1179688, 4, 0, 1179689, 4, 0, 1179690, 5, 0, 1179708, 3, 0, 1179709, 4, 0, 1179710, 4, 0, 1179711, 4, 0, 1179712, 4, 0, 1179713, 4, 0, 1179714, 4, 0, 1179715, 4, 0, 1179716, 4, 0, 1179717, 4, 0, 1179718, 4, 0, 1179719, 4, 0, 1179720, 4, 0, 1179721, 4, 0, 1179722, 4, 0, 1179723, 4, 0, 1179724, 4, 0, 1179727, 4, 0, 1179731, 4, 0, 1179735, 4, 0, 1179738, 4, 0, 1179739, 4, 0, 1179740, 4, 0, 1179741, 4, 0, 1179742, 4, 0, 1179743, 4, 0, 1179744, 4, 0, 1179745, 4, 0, 1179759, 3, 0, 1179760, 4, 0, 1179761, 4, 0, 1179762, 4, 0, 1179763, 4, 0, 1179764, 4, 0, 1179765, 4, 0, 1179766, 4, 0, 1179767, 5, 0, 1179771, 3, 0, 1179772, 4, 0, 1179773, 4, 0, 1179774, 4, 0, 1179781, 4, 0, 1179782, 4, 0, 1179783, 4, 0, 1179784, 4, 0, 1179785, 4, 0, 1179786, 4, 0, 1179803, 3, 0, 1179804, 4, 0, 1179805, 4, 0, 1179806, 4, 0, 1179807, 4, 0, 1179808, 4, 0, 1179809, 4, 0, 1179810, 4, 0, 1179811, 4, 0, 1179812, 4, 0, 1179813, 4, 0, 1179814, 4, 0, 1179815, 4, 0, 1179816, 4, 0, 1179817, 4, 0, 1179818, 4, 0, 1179819, 4, 0, 1179820, 4, 0, 1179821, 4, 0, 1179822, 4, 0, 1179823, 4, 0, 1179824, 4, 0, 1179825, 4, 0, 1179826, 4, 0, 1179827, 4, 0, 1310712, 4, 0, 1310713, 4, 0, 1310714, 4, 0, 1310715, 4, 0, 1310716, 4, 0, 1310717, 4, 0, 1310718, 4, 0, 1310719, 4, 0, 1245184, 4, 0, 1245185, 4, 0, 1245186, 4, 0, 1245187, 5, 0, 1245190, 3, 0, 1245191, 4, 0, 1245192, 4, 0, 1245193, 4, 0, 1245194, 5, 0, 1245197, 3, 0, 1245198, 5, 0, 1245202, 3, 0, 1245203, 5, 0, 1245207, 3, 0, 1245208, 5, 0, 1245211, 3, 0, 1245212, 4, 0, 1245213, 4, 0, 1245214, 4, 0, 1245215, 4, 0, 1245216, 4, 0, 1245217, 4, 0, 1245218, 4, 0, 1245219, 4, 0, 1245220, 4, 0, 1245221, 4, 0, 1245222, 4, 0, 1245223, 4, 0, 1245224, 4, 0, 1245225, 4, 0, 1245226, 5, 0, 1245244, 3, 0, 1245245, 4, 0, 1245246, 4, 0, 1245247, 4, 0, 1245248, 4, 0, 1245249, 4, 0, 1245250, 4, 0, 1245251, 4, 0, 1245252, 4, 0, 1245253, 4, 0, 1245254, 4, 0, 1245255, 4, 0, 1245256, 4, 0, 1245257, 4, 0, 1245258, 4, 0, 1245259, 4, 0, 1245260, 4, 0, 1245263, 4, 0, 1245267, 4, 0, 1245271, 4, 0, 1245274, 4, 0, 1245275, 4, 0, 1245276, 4, 0, 1245277, 4, 0, 1245278, 4, 0, 1245279, 4, 0, 1245280, 4, 0, 1245281, 4, 0, 1245295, 3, 0, 1245296, 4, 0, 1245297, 4, 0, 1245298, 4, 0, 1245299, 4, 0, 1245300, 4, 0, 1245301, 4, 0, 1245302, 4, 0, 1245303, 5, 0, 1245307, 3, 0, 1245308, 4, 0, 1245309, 4, 0, 1245310, 4, 0, 1245311, 1, 0, 1245312, 1, 0, 1245313, 1, 0, 1245314, 1, 0, 1245315, 1, 0, 1245316, 1, 0, 1245317, 4, 0, 1245318, 4, 0, 1245319, 4, 0, 1245320, 4, 0, 1245321, 4, 0, 1245322, 4, 0, 1245339, 3, 0, 1245340, 4, 0, 1245341, 4, 0, 1245342, 4, 0, 1245343, 4, 0, 1245344, 4, 0, 1245345, 4, 0, 1245346, 4, 0, 1245347, 4, 0, 1245348, 4, 0, 1245349, 4, 0, 1245350, 4, 0, 1245351, 4, 0, 1245352, 4, 0, 1245353, 4, 0, 1245354, 4, 0, 1245355, 4, 0, 1245356, 4, 0, 1245357, 4, 0, 1245358, 4, 0, 1245359, 4, 0, 1245360, 4, 0, 1245361, 4, 0, 1245362, 4, 0, 1245363, 4, 0, 1376248, 4, 0, 1376249, 4, 0, 1376250, 4, 0, 1376251, 4, 0, 1376252, 4, 0, 1376253, 4, 0, 1376254, 4, 0, 1376255, 4, 0, 1310720, 4, 0, 1310721, 4, 0, 1310722, 4, 0, 1310723, 5, 0, 1310726, 3, 0, 1310727, 4, 0, 1310728, 4, 0, 1310729, 4, 0, 1310730, 5, 0, 1310733, 3, 0, 1310734, 5, 0, 1310738, 3, 0, 1310739, 5, 0, 1310743, 3, 0, 1310744, 5, 0, 1310747, 3, 0, 1310748, 4, 0, 1310749, 4, 0, 1310750, 4, 0, 1310751, 4, 0, 1310752, 4, 0, 1310753, 4, 0, 1310754, 4, 0, 1310755, 4, 0, 1310756, 4, 0, 1310757, 4, 0, 1310758, 4, 0, 1310759, 4, 0, 1310760, 4, 0, 1310761, 4, 0, 1310762, 5, 0, 1310780, 3, 0, 1310781, 4, 0, 1310782, 4, 0, 1310783, 4, 0, 1310784, 4, 0, 1310785, 4, 0, 1310786, 4, 0, 1310787, 4, 0, 1310788, 4, 0, 1310789, 4, 0, 1310790, 4, 0, 1310791, 4, 0, 1310792, 4, 0, 1310793, 4, 0, 1310794, 4, 0, 1310795, 4, 0, 1310796, 4, 0, 1310799, 4, 0, 1310803, 4, 0, 1310807, 4, 0, 1310810, 4, 0, 1310811, 4, 0, 1310812, 4, 0, 1310813, 4, 0, 1310814, 4, 0, 1310815, 4, 0, 1310816, 4, 0, 1310817, 4, 0, 1310831, 3, 0, 1310832, 4, 0, 1310833, 4, 0, 1310834, 4, 0, 1310835, 4, 0, 1310836, 4, 0, 1310837, 4, 0, 1310838, 4, 0, 1310839, 5, 0, 1310843, 3, 0, 1310844, 4, 0, 1310845, 4, 0, 1310846, 4, 0, 1310847, 4, 0, 1310848, 4, 0, 1310849, 4, 0, 1310850, 4, 0, 1310851, 4, 0, 1310852, 4, 0, 1310853, 4, 0, 1310854, 4, 0, 1310855, 4, 0, 1310856, 4, 0, 1310857, 4, 0, 1310858, 4, 0, 1310875, 3, 0, 1310876, 4, 0, 1310877, 4, 0, 1310878, 4, 0, 1310879, 4, 0, 1310880, 4, 0, 1310881, 4, 0, 1310882, 4, 0, 1310883, 4, 0, 1310884, 4, 0, 1310885, 4, 0, 1310886, 4, 0, 1310887, 4, 0, 1310888, 4, 0, 1310889, 4, 0, 1310890, 4, 0, 1310891, 4, 0, 1310892, 4, 0, 1310893, 4, 0, 1310894, 4, 0, 1310895, 4, 0, 1310896, 4, 0, 1310897, 4, 0, 1310898, 4, 0, 1310899, 4, 0, 1441784, 4, 0, 1441785, 4, 0, 1441786, 4, 0, 1441787, 4, 0, 1441788, 4, 0, 1441789, 4, 0, 1441790, 4, 0, 1441791, 4, 0, 1376256, 4, 0, 1376257, 4, 0, 1376258, 4, 0, 1376259, 5, 0, 1376262, 3, 0, 1376263, 4, 0, 1376264, 4, 0, 1376265, 4, 0, 1376266, 5, 0, 1376269, 3, 0, 1376270, 5, 0, 1376274, 3, 0, 1376275, 5, 0, 1376279, 3, 0, 1376280, 5, 0, 1376283, 3, 0, 1376284, 4, 0, 1376285, 4, 0, 1376286, 4, 0, 1376287, 4, 0, 1376288, 4, 0, 1376289, 4, 0, 1376290, 4, 0, 1376291, 4, 0, 1376292, 4, 0, 1376293, 4, 0, 1376294, 4, 0, 1376295, 4, 0, 1376296, 4, 0, 1376297, 4, 0, 1376298, 5, 0, 1376316, 3, 0, 1376317, 4, 0, 1376318, 4, 0, 1376319, 4, 0, 1376320, 4, 0, 1376321, 4, 0, 1376322, 4, 0, 1376323, 4, 0, 1376324, 4, 0, 1376325, 4, 0, 1376326, 4, 0, 1376327, 4, 0, 1376328, 4, 0, 1376329, 4, 0, 1376330, 4, 0, 1376331, 4, 0, 1376332, 4, 0, 1376335, 4, 0, 1376339, 4, 0, 1376343, 4, 0, 1376346, 4, 0, 1376347, 4, 0, 1376348, 4, 0, 1376349, 4, 0, 1376350, 4, 0, 1376351, 4, 0, 1376352, 4, 0, 1376353, 4, 0, 1376367, 3, 0, 1376368, 4, 0, 1376369, 4, 0, 1376370, 4, 0, 1376371, 4, 0, 1376372, 4, 0, 1376373, 4, 0, 1376374, 4, 0, 1376375, 5, 0, 1376379, 3, 0, 1376380, 4, 0, 1376381, 4, 0, 1376382, 4, 0, 1376383, 4, 0, 1376384, 4, 0, 1376385, 4, 0, 1376386, 4, 0, 1376387, 4, 0, 1376388, 4, 0, 1376389, 4, 0, 1376390, 4, 0, 1376391, 4, 0, 1376392, 4, 0, 1376393, 4, 0, 1376394, 4, 0, 1376411, 3, 0, 1376412, 4, 0, 1376413, 4, 0, 1376414, 4, 0, 1376415, 4, 0, 1376416, 4, 0, 1376417, 4, 0, 1376418, 4, 0, 1376419, 4, 0, 1376420, 4, 0, 1376421, 4, 0, 1376422, 4, 0, 1376423, 4, 0, 1376424, 4, 0, 1376425, 4, 0, 1376426, 4, 0, 1376427, 4, 0, 1376428, 4, 0, 1376429, 4, 0, 1376430, 4, 0, 1376431, 4, 0, 1376432, 4, 0, 1376433, 4, 0, 1376434, 4, 0, 1376435, 4, 0, 1507320, 4, 0, 1507321, 4, 0, 1507322, 4, 0, 1507323, 4, 0, 1507324, 4, 0, 1507325, 4, 0, 1507326, 4, 0, 1507327, 4, 0, 1441792, 4, 0, 1441793, 4, 0, 1441794, 4, 0, 1441795, 5, 0, 1441798, 3, 0, 1441799, 4, 0, 1441800, 4, 0, 1441801, 4, 0, 1441802, 5, 0, 1441805, 3, 0, 1441806, 5, 0, 1441810, 3, 0, 1441811, 5, 0, 1441815, 3, 0, 1441816, 5, 0, 1441819, 3, 0, 1441820, 4, 0, 1441821, 4, 0, 1441822, 4, 0, 1441823, 4, 0, 1441824, 4, 0, 1441825, 4, 0, 1441826, 4, 0, 1441827, 4, 0, 1441828, 4, 0, 1441829, 4, 0, 1441830, 4, 0, 1441831, 4, 0, 1441832, 4, 0, 1441833, 4, 0, 1441834, 5, 0, 1441852, 3, 0, 1441853, 4, 0, 1441854, 4, 0, 1441855, 4, 0, 1441856, 4, 0, 1441857, 4, 0, 1441858, 4, 0, 1441859, 4, 0, 1441860, 4, 0, 1441861, 4, 0, 1441862, 4, 0, 1441863, 4, 0, 1441864, 4, 0, 1441865, 4, 0, 1441866, 4, 0, 1441867, 4, 0, 1441868, 4, 0, 1441871, 4, 0, 1441875, 4, 0, 1441879, 4, 0, 1441882, 4, 0, 1441883, 4, 0, 1441884, 4, 0, 1441885, 4, 0, 1441886, 4, 0, 1441887, 4, 0, 1441888, 4, 0, 1441889, 4, 0, 1441903, 3, 0, 1441904, 4, 0, 1441905, 4, 0, 1441906, 4, 0, 1441907, 4, 0, 1441908, 4, 0, 1441909, 4, 0, 1441910, 4, 0, 1441911, 5, 0, 1441915, 3, 0, 1441916, 4, 0, 1441917, 4, 0, 1441918, 4, 0, 1441919, 4, 0, 1441920, 4, 0, 1441921, 4, 0, 1441922, 4, 0, 1441923, 4, 0, 1441924, 4, 0, 1441925, 4, 0, 1441926, 4, 0, 1441927, 4, 0, 1441928, 4, 0, 1441929, 4, 0, 1441930, 4, 0, 1441947, 3, 0, 1441948, 4, 0, 1441949, 4, 0, 1441950, 4, 0, 1441951, 4, 0, 1441952, 4, 0, 1441953, 4, 0, 1441954, 4, 0, 1441955, 4, 0, 1441956, 4, 0, 1441957, 4, 0, 1441958, 4, 0, 1441959, 4, 0, 1441960, 4, 0, 1441961, 4, 0, 1441962, 4, 0, 1441963, 4, 0, 1441964, 4, 0, 1441965, 4, 0, 1441966, 4, 0, 1441967, 4, 0, 1441968, 4, 0, 1441969, 4, 0, 1441970, 4, 0, 1441971, 4, 0, 1572856, 4, 0, 1572857, 4, 0, 1572858, 4, 0, 1572859, 4, 0, 1572860, 4, 0, 1572861, 4, 0, 1572862, 4, 0, 1572863, 4, 0, 1507328, 4, 0, 1507329, 4, 0, 1507330, 4, 0, 1507331, 5, 0, 1507334, 3, 0, 1507335, 4, 0, 1507336, 4, 0, 1507337, 4, 0, 1507338, 5, 0, 1507341, 3, 0, 1507342, 5, 0, 1507346, 3, 0, 1507347, 5, 0, 1507351, 3, 0, 1507352, 5, 0, 1507355, 3, 0, 1507356, 4, 0, 1507357, 4, 0, 1507358, 4, 0, 1507359, 4, 0, 1507360, 4, 0, 1507361, 4, 0, 1507362, 4, 0, 1507363, 4, 0, 1507364, 4, 0, 1507365, 4, 0, 1507366, 4, 0, 1507367, 4, 0, 1507368, 4, 0, 1507369, 4, 0, 1507370, 5, 0, 1507388, 3, 0, 1507389, 4, 0, 1507390, 4, 0, 1507391, 4, 0, 1507392, 4, 0, 1507393, 4, 0, 1507394, 4, 0, 1507395, 4, 0, 1507396, 4, 0, 1507397, 4, 0, 1507398, 4, 0, 1507399, 4, 0, 1507400, 4, 0, 1507401, 4, 0, 1507402, 4, 0, 1507403, 4, 0, 1507404, 4, 0, 1507407, 4, 0, 1507411, 4, 0, 1507415, 4, 0, 1507418, 4, 0, 1507419, 4, 0, 1507420, 4, 0, 1507421, 4, 0, 1507422, 4, 0, 1507423, 4, 0, 1507424, 4, 0, 1507425, 4, 0, 1507439, 3, 0, 1507440, 4, 0, 1507441, 4, 0, 1507442, 4, 0, 1507443, 4, 0, 1507444, 4, 0, 1507445, 4, 0, 1507446, 4, 0, 1507447, 5, 0, 1507451, 3, 0, 1507452, 4, 0, 1507453, 4, 0, 1507454, 4, 0, 1507455, 4, 0, 1507456, 4, 0, 1507457, 4, 0, 1507458, 4, 0, 1507459, 4, 0, 1507460, 4, 0, 1507461, 4, 0, 1507462, 4, 0, 1507463, 4, 0, 1507464, 4, 0, 1507465, 4, 0, 1507466, 4, 0, 1507483, 3, 0, 1507484, 4, 0, 1507485, 4, 0, 1507486, 4, 0, 1507487, 4, 0, 1507488, 4, 0, 1507489, 4, 0, 1507490, 4, 0, 1507491, 4, 0, 1507492, 4, 0, 1507493, 4, 0, 1507494, 4, 0, 1507495, 4, 0, 1507496, 4, 0, 1507497, 4, 0, 1507498, 4, 0, 1507499, 4, 0, 1507500, 4, 0, 1507501, 4, 0, 1507502, 4, 0, 1507503, 4, 0, 1507504, 4, 0, 1507505, 4, 0, 1507506, 4, 0, 1507507, 4, 0, 1638392, 4, 0, 1638393, 4, 0, 1638394, 4, 0, 1638395, 4, 0, 1638396, 4, 0, 1638397, 4, 0, 1638398, 4, 0, 1638399, 4, 0, 1572864, 4, 0, 1572865, 4, 0, 1572866, 4, 0, 1572867, 5, 0, 1572870, 3, 0, 1572871, 4, 0, 1572872, 4, 0, 1572873, 4, 0, 1572874, 5, 0, 1572877, 3, 0, 1572878, 5, 0, 1572882, 3, 0, 1572883, 5, 0, 1572887, 3, 0, 1572888, 5, 0, 1572891, 3, 0, 1572892, 4, 0, 1572893, 4, 0, 1572894, 4, 0, 1572895, 4, 0, 1572896, 4, 0, 1572897, 4, 0, 1572898, 4, 0, 1572899, 4, 0, 1572900, 4, 0, 1572901, 4, 0, 1572902, 4, 0, 1572903, 4, 0, 1572904, 4, 0, 1572905, 4, 0, 1572906, 5, 0, 1572924, 3, 0, 1572925, 4, 0, 1572926, 4, 0, 1572927, 4, 0, 1572928, 4, 0, 1572929, 4, 0, 1572930, 4, 0, 1572931, 4, 0, 1572932, 4, 0, 1572933, 4, 0, 1572934, 4, 0, 1572935, 4, 0, 1572936, 4, 0, 1572937, 4, 0, 1572938, 4, 0, 1572939, 4, 0, 1572940, 4, 0, 1572943, 4, 0, 1572947, 4, 0, 1572951, 4, 0, 1572954, 4, 0, 1572955, 4, 0, 1572956, 4, 0, 1572957, 4, 0, 1572958, 4, 0, 1572959, 4, 0, 1572960, 4, 0, 1572961, 4, 0, 1572975, 3, 0, 1572976, 4, 0, 1572977, 4, 0, 1572978, 4, 0, 1572979, 4, 0, 1572980, 4, 0, 1572981, 4, 0, 1572982, 4, 0, 1572983, 5, 0, 1572987, 3, 0, 1572988, 4, 0, 1572989, 4, 0, 1572990, 4, 0, 1572991, 4, 0, 1572992, 4, 0, 1572993, 4, 0, 1572994, 4, 0, 1572995, 4, 0, 1572996, 4, 0, 1572997, 4, 0, 1572998, 4, 0, 1572999, 4, 0, 1573000, 4, 0, 1573001, 4, 0, 1573002, 4, 0, 1573019, 3, 0, 1573020, 4, 0, 1573021, 4, 0, 1573022, 4, 0, 1573023, 4, 0, 1573024, 4, 0, 1573025, 4, 0, 1573026, 4, 0, 1573027, 4, 0, 1573028, 4, 0, 1573029, 4, 0, 1573030, 4, 0, 1573031, 4, 0, 1573032, 4, 0, 1573033, 4, 0, 1573034, 4, 0, 1573035, 4, 0, 1573036, 4, 0, 1573037, 4, 0, 1573038, 4, 0, 1573039, 4, 0, 1573040, 4, 0, 1573041, 4, 0, 1573042, 4, 0, 1573043, 4, 0 )

[node name="Area2D" type="Area2D" parent="."]
script = ExtResource( 9 )

[node name="CollisionShape2D" type="CollisionShape2D" parent="Area2D"]
position = Vector2( 11741.6, -1705.71 )
shape = SubResource( 1 )

[node name="Sprite" type="Sprite" parent="Area2D"]
position = Vector2( 11743.4, -1686.06 )
scale = Vector2( 2, 2 )
texture = ExtResource( 8 )

[node name="Label" type="Label" parent="Area2D"]
visible = false
margin_left = 11681.4
margin_top = -1810.12
margin_right = 11799.4
margin_bottom = -1785.12
custom_fonts/font = ExtResource( 10 )
text = "Locked!"
__meta__ = {
"_edit_use_anchors_": false
}

[node name="ParallaxBackground" type="ParallaxBackground" parent="."]

[node name="ParallaxLayer" type="ParallaxLayer" parent="ParallaxBackground"]
motion_scale = Vector2( 0.1, 0.1 )
motion_offset = Vector2( 0.1, 0.1 )

[node name="Sprite" type="Sprite" parent="ParallaxBackground/ParallaxLayer"]
position = Vector2( -1644.1, -812.04 )
scale = Vector2( 2.5, 2.5 )
texture = ExtResource( 3 )
centered = false

[node name="CanvasLayer" type="CanvasLayer" parent="."]

[node name="GUI" parent="CanvasLayer" instance=ExtResource( 5 )]

[node name="Friend" parent="." instance=ExtResource( 7 )]
position = Vector2( 8174.36, 1160.44 )

[node name="Player" parent="." instance=ExtResource( 1 )]
position = Vector2( 8816.99, 287.173 )

[node name="Enemy5" type="Node2D" parent="."]

[node name="Enemy4" parent="Enemy5" instance=ExtResource( 6 )]
position = Vector2( 8010.09, -373.352 )

[node name="Enemy2" parent="Enemy5" instance=ExtResource( 6 )]
position = Vector2( 3609.13, 309.45 )

[node name="Enemy3" parent="Enemy5" instance=ExtResource( 6 )]
position = Vector2( 5600.37, 598.718 )

[node name="EnemyArea3" parent="Enemy5" instance=ExtResource( 4 )]
position = Vector2( 13389, -1301.65 )

[node name="EnemyArea4" parent="Enemy5" instance=ExtResource( 4 )]
position = Vector2( 5328.19, 1464.54 )

[node name="EnemyArea2" parent="Enemy5" instance=ExtResource( 4 )]
position = Vector2( 8467.1, 1456.64 )

[node name="EnemyArea" parent="Enemy5" instance=ExtResource( 4 )]
position = Vector2( 2528.68, 1470.45 )

[node name="Enemy" parent="Enemy5" instance=ExtResource( 6 )]
position = Vector2( 2277.15, 803.897 )

[node name="Enemy5" parent="Enemy5" instance=ExtResource( 6 )]
position = Vector2( 6880, 280 )

[node name="Enemy6" parent="Enemy5" instance=ExtResource( 6 )]
position = Vector2( 4488, 492 )

[node name="Enemy7" parent="Enemy5" instance=ExtResource( 6 )]
position = Vector2( 8603.09, 950.953 )

[node name="Enemy8" parent="Enemy5" instance=ExtResource( 6 )]
position = Vector2( 10363.6, -488.44 )

[node name="Enemy9" parent="Enemy5" instance=ExtResource( 6 )]
position = Vector2( 9619.92, -1076.41 )
[connection signal="body_entered" from="Area2D" to="Area2D" method="_on_house2_entered"]
